{
    "melon":{
        "menuId":54020101,
        "count":10,
        "page":1,
        "totalPages":10,
        "rankDay":"20121123",
        "rankHour":"08",
        "songs":{
            "song":[
                {
                    "songId":3968836,
                    "songName":"되돌리다",
                    "artists":{
                        "artist":[
                            {
                                "artistId":58793,
                                "artistName":"이승기"
                            }
                        ]
                    },
                    "albumId":2167822,
                    "albumName":"숲",
                    "currentRank":1,
                    "pastRank":1,
                    "playTime":265,
                    "issueDate":"20121122",
                    "isTitleSong":"true",
                    "isHitSong":"false",
                    "isAdult":"false",
                    "isFree":"false"
                },
                {
                    "songId":3968900,
                    "songName":"허수아비",
                    "artists":{
                        "artist":[
                            {
                                "artistId":646171,
                                "artistName":"이하이"
                            }
                        ]
                    },
                    "albumId":2167828,
                    "albumName":"허수아비",
                    "currentRank":2,
                    "pastRank":2,
                    "playTime":263,
                    "issueDate":"20121122",
                    "isTitleSong":"true",
                    "isHitSong":"false",
                    "isAdult":"false",
                    "isFree":"false"
                },
                {
                    "songId":3946768,
                    "songName":"1,
                    2,
                    3,
                    4 (원,
                    투,
                    쓰리,
                    포)",
                    "artists":{
                        "artist":[
                            {
                                "artistId":646171,
                                "artistName":"이하이"
                            }
                        ]
                    },
                    "albumId":2165012,
                    "albumName":"1,
                    2,
                    3,
                    4 (원,
                    투,
                    쓰리,
                    포)",
                    "currentRank":3,
                    "pastRank":3,
                    "playTime":214,
                    "issueDate":"20121029",
                    "isTitleSong":"true",
                    "isHitSong":"false",
                    "isAdult":"false",
                    "isFree":"false"
                },
                {
                    "songId":3946867,
                    "songName":"Officially Missing You,
                     Too",
                    "artists":{
                        "artist":[
                            {
                                "artistId":525805,
                                "artistName":"긱스"
                            },
                            {
                                "artistId":490981,
                                "artistName":"소유 (씨스타)"
                            }
                        ]
                    },
                    "albumId":2165024,
                    "albumName":"re;code Episode I",
                    "currentRank":4,
                    "pastRank":4,
                    "playTime":223,
                    "issueDate":"20121101",
                    "isTitleSong":"true",
                    "isHitSong":"false",
                    "isAdult":"false",
                    "isFree":"false"
                },
                {
                    "songId":3953192,
                    "songName":"하지 못한 말",
                    "artists":{
                        "artist":[
                            {
                                "artistId":105623,
                                "artistName":"노을"
                            }
                        ]
                    },
                    "albumId":2165918,
                    "albumName":"TIME FOR LOVE",
                    "currentRank":5,
                    "pastRank":5,
                    "playTime":258,
                    "issueDate":"20121106",
                    "isTitleSong":"true",
                    "isHitSong":"false",
                    "isAdult":"false",
                    "isFree":"false"
                },
                {
                    "songId":3968837,
                    "songName":"숲",
                    "artists":{
                        "artist":[
                            {
                                "artistId":58793,
                                "artistName":"이승기"
                            }
                        ]
                    },
                    "albumId":2167822,
                    "albumName":"숲",
                    "currentRank":6,
                    "pastRank":10,
                    "playTime":233,
                    "issueDate":"20121122",
                    "isTitleSong":"false",
                    "isHitSong":"false",
                    "isAdult":"false",
                    "isFree":"false"
                },
                {
                    "songId":3929469,
                    "songName":"보여줄게",
                    "artists":{
                        "artist":[
                            {
                                "artistId":629831,
                                "artistName":"에일리"
                            }
                        ]
                    },
                    "albumId":2153251,
                    "albumName":"Invitation",
                    "currentRank":7,
                    "pastRank":6,
                    "playTime":232,
                    "issueDate":"20121016",
                    "isTitleSong":"true",
                    "isHitSong":"false",
                    "isAdult":"false",
                    "isFree":"false"
                },
                {
                    "songId":3964483,
                    "songName":"힐링이 필요해",
                    "artists":{
                        "artist":[
                            {
                                "artistId":699632,
                                "artistName":"로이킴"
                            }
                        ]
                    },
                    "albumId":2167336,
                    "albumName":"슈퍼스타K4 Top 12 Part.6",
                    "currentRank":8,
                    "pastRank":12,
                    "playTime":203,
                    "issueDate":"20121119",
                    "isTitleSong":"false",
                    "isHitSong":"false",
                    "isAdult":"false",
                    "isFree":"false"
                },
                {
                    "songId":3947371,
                    "songName":"? (물음표) (Feat. 최자 Of 다이나믹듀오,
                     Zion.T)",
                    "artists":{
                        "artist":[
                            {
                                "artistId":35682,
                                "artistName":"프라이머리"
                            }
                        ]
                    },
                    "albumId":2161126,
                    "albumName":"Primary And The Messengers LP",
                    "currentRank":9,
                    "pastRank":8,
                    "playTime":194,
                    "issueDate":"20121031",
                    "isTitleSong":"true",
                    "isHitSong":"false",
                    "isAdult":"false",
                    "isFree":"false"
                },
                {
                    "songId":3966128,
                    "songName":"나쁜 사람",
                    "artists":{
                        "artist":[
                            {
                                "artistId":673198,
                                "artistName":"JUNIEL"
                            }
                        ]
                    },
                    "albumId":2167530,
                    "albumName":"원앤원 (1&1)",
                    "currentRank":10,
                    "pastRank":11,
                    "playTime":224,
                    "issueDate":"20121120",
                    "isTitleSong":"true",
                    "isHitSong":"false",
                    "isAdult":"false",
                    "isFree":"false"
                }
            ]
        }
    }
}